{
		"cliente":[{
			"cod" : "1",
			"nome" : "Gabriel",
    			"data" : "28/10/2017 - 16:20",
    			"telefone" : "88 88888888",
    			"login" : "gabriel",
    			"senha" : "123456",
    			"status" : "String"
			},
			{
			"cod" : "2",
			"nome" : "Gabriel",
    			"data" : "28/10/2017 - 16:20",
    			"telefone" : "88 88888888",
    			"login" : "gabriel",
    			"senha" : "123456",
    			"status" : "String"
			},
			{
			"cod" : "3",
			"nome" : "Gabriel",
    			"data" : "28/10/2017 - 16:20",
    			"telefone" : "88 88888888",
    			"login" : "gabriel",
    			"senha" : "123456",
    			"status" : "String"
			}]
			

}